Thermobench.jl · Thermobench
…
julia> dropmissing(select(d.df, [:time, :CPU_0_temp]));
or

julia> using Pipe: @pipe
julia> @pipe d.df |> select(_, [:time, :CPU_0_temp]) |> dropmissing(_);
Note that when you select all columns, you will likely end up with empty dataframe, because dropmissing keeps only rows with no missing values.
Alternatively, you can get rid of missing data by interpolating them with interpolate:

julia> interpolate(d)Thermobench.Data: Name: test1.csv
    1092×30 DataFrame
  Row │ time          CPU_0_temp  CPU_1_temp  GPU_0_temp  GPU_1_temp  DRC_temp ⋯
      │ Float64       Float64?    Float64?    Float64?    Float64?    Float64? ⋯
──────┼─────────────────────────────────────────────────────────────────────────
    1 │   5.2376e-5      39.7        40.5        40.5        40.5       39.9   ⋯
    2 │   0.00298869     39.7        40.5        40.5        40.5       39.9
    3 │   0.112669       39.744      40.522      40.456      40.456     39.944
    4 │   1.00012        40.1        40.7        40.1        40.1       40.3
    5 │   2.00109        39.7        40.7        39.7        39.7       40.3   ⋯
    6 │   2.16951        39.8348     40.7674     39.8348     39.8348    40.3
    7 │   3.00061        40.5        41.1        40.5        40.5       40.3
    8 │   4.00057        40.3        40.7        40.3        40.3       40.5
  ⋮   │      ⋮            ⋮           ⋮           ⋮           ⋮          ⋮     ⋱
 1086 │ 870.851          52.5        53.43       52.5        52.5       52.1   ⋯
 1087 │ 871.001          52.5        53.4        52.5        52.5       52.1
 1088 │ 872.001          52.6        53.6        52.6        52.6       52.1
 1089 │ 873.001          52.5        53.4        52.5        52.5       52.1
 1090 │ 874.001          52.5        53.4        52.5        52.5       52.1   ⋯
 1091 │ 875.001          52.6        53.4        52.6        52.6       52.1
 1092 │ 876.0            52.5        53.2        52.5        52.5       52.1
                                                24 columns and 1077 rows omitted
…
